[{"Name":"Автономная некоммерческая организация", "ShortName":"АНО"},
{"Name":"Автономное учреждение", "ShortName":"АУ"},
{"Name":"Автотранспортное предприятие", "ShortName":"АТП"},
{"Name":"Адвокатская палата", "ShortName":"АП"},
{"Name":"Административный округ", "ShortName":"АДОК"},
{"Name":"Акционерное общество", "ShortName":"АО"},
{"Name":"Аптека", "ShortName":"А-ка"},
{"Name":"Артель", "ShortName":"Арт"},
{"Name":"Ассоциация", "ShortName":"АС"},
{"Name":"Ассоциация крестьянских (фермерских) хозяйств", "ShortName":"АСКФХ"},
{"Name":"Библиотека", "ShortName":"Б-ка"},
{"Name":"Благотворительный фонд", "ShortName":"БФ"},
{"Name":"Больница", "ShortName":"Б-ца"},
{"Name":"Больница скорой помощи", "ShortName":"БСП"},
{"Name":"Бюджетное учреждение", "ShortName":"БУ"},
{"Name":"Внебюджетный фонд", "ShortName":"ВБФ"},
{"Name":"Гаражно-строительный кооператив", "ShortName":"ГСК"},
{"Name":"Гаражный кооператив", "ShortName":"ГК"},
{"Name":"Государственное бюджетное учреждение", "ShortName":"ГБУ"},
{"Name":"Государственное казенное учреждение", "ShortName":"ГКУ"},
{"Name":"Государственное предприятие", "ShortName":"ГП"},
{"Name":"Государственное унитарное предприятие", "ShortName":"ГУП"},
{"Name":"Государственное учреждение", "ShortName":"ГУЧ"},
{"Name":"Дачное товарищество", "ShortName":"ДТ"},
{"Name":"Детский сад", "ShortName":"Д/С"},
{"Name":"Дорожное (строительное) управление", "ShortName":"Д(С)У"},
{"Name":"Духовное образовательное учреждение", "ShortName":"ДОУч"},
{"Name":"Железная дорога", "ShortName":"ЖД"},
{"Name":"Жилищно-строительный кооператив", "ShortName":"ЖСК"},
{"Name":"Завод", "ShortName":"З-д"},
{"Name":"Закрытое акционерное общество", "ShortName":"ЗАО"},
{"Name":"Институт", "ShortName":"Ин-т"},
{"Name":"Колхоз", "ShortName":"КЛХ"},
{"Name":"Коммерческая фирма", "ShortName":"КФ"},
{"Name":"Коммерческий банк", "ShortName":"Комбанк"},
{"Name":"Коммерческий центр", "ShortName":"КЦ"},
{"Name":"Компания", "ShortName":"Комп"},
{"Name":"Конструкторское бюро", "ShortName":"КБ"},
{"Name":"Кооператив", "ShortName":"КООП"},
{"Name":"Корпорация", "ShortName":"Корп"},
{"Name":"Кредитный союз", "ShortName":"КС"},
{"Name":"Крестьянское (фермерское) хозяйство", "ShortName":"КФХ"},
{"Name":"Крестьянское хозяйство", "ShortName":"КХ"},
{"Name":"Личное подсобное хозяйство", "ShortName":"ЛПХ"},
{"Name":"Малое предприятие", "ShortName":"МП"},
{"Name":"Медсанчасть", "ShortName":"МСЧ"},
{"Name":"Межгосударственная финансово – промышленная группа", "ShortName":"МФПГ"},
{"Name":"Межотраслевой внебюджетный фонд", "ShortName":"МВБД"},
{"Name":"Межхозяйственное предприятие", "ShortName":"МХП"},
{"Name":"Миссия", "ShortName":"Миссия"},
{"Name":"Монастырь", "ShortName":"Монастырь"},
{"Name":"Муниципальное предприятие", "ShortName":"МУП"},
{"Name":"Муниципальное казенное предприятие", "ShortName":"МКП"},
{"Name":"Муниципальное унитарное предприятие", "ShortName":"МУУП"},
{"Name":"Муниципальное учреждение", "ShortName":"МУУЧ"},
{"Name":"Муниципальное казенное учреждение", "ShortName":"МКУ"},
{"Name":"Муниципальное бюджетное учреждение", "ShortName":"МБУ"},
{"Name":"Муниципальное учреждение", "ShortName":"МУЧ"},
{"Name":"Научно – производственная фирма", "ShortName":"НПФ"},
{"Name":"Научно – производственное объединение", "ShortName":"НПО"},
{"Name":"Научно – производственное предприятие", "ShortName":"НПП"},
{"Name":"Научно – технический центр", "ShortName":"НТЦ"},
{"Name":"Некоммерческое партнерство", "ShortName":"НП"},
{"Name":"Нотариальная контора", "ShortName":"НОТК"},
{"Name":"Нотариальная Палата", "ShortName":"НОТП"},
{"Name":"Обособленное подразделение", "ShortName":"ОБП"},
{"Name":"Обособленное структурное подразделение", "ShortName":"ОСП"},
{"Name":"Объединение крестьянских (фермерских) хозяйств", "ShortName":"ОКФХ"},
{"Name":"Общероссийский профсоюз", "ShortName":"Опроф"},
{"Name":"Общественная организация", "ShortName":"ОО"},
{"Name":"Общественное движение", "ShortName":"ОД"},
{"Name":"Общественное объединение", "ShortName":"ООБ"},
{"Name":"Общественное учреждение", "ShortName":"ОУЧ"},
{"Name":"Общественный фонд", "ShortName":"ОФ"},
{"Name":"Общество с дополнительной ответственностью", "ShortName":"ОДО"},
{"Name":"Общество с ограниченной ответственностью", "ShortName":"ООО"},
{"Name":"Община", "ShortName":"Община"},
{"Name":"Объединение предприятий", "ShortName":"ОП"},
{"Name":"Объединение фермерских хозяйств", "ShortName":"ОФХ"},
{"Name":"Огородническое товарищество", "ShortName":"ОТ"},
{"Name":"Орган общественной самодеятельности", "ShortName":"ООС"},
{"Name":"Отделение", "ShortName":"ОТД"},
{"Name":"Открытое акционерное общество", "ShortName":"ОАО"},
{"Name":"Отраслевой внебюджетный фонд", "ShortName":"ОВБД"},
{"Name":"Паевой инвестиционный фонд", "ShortName":"ПИФ"},
{"Name":"Партия", "ShortName":"Партия"},
{"Name":"Пассажирское автотранспортное предприятие", "ShortName":"ПАТП"},
{"Name":"Первичная профсоюзная организация", "ShortName":"ППО"},
{"Name":"Поликлиника", "ShortName":"П-ка"},
{"Name":"Полное товарищество", "ShortName":"ПТ"},
{"Name":"Потребительский кооператив", "ShortName":"ПТК"},
{"Name":"Потребительский союз", "ShortName":"ПС"},
{"Name":"Потребительское общество", "ShortName":"ПОБ"},
{"Name":"Предприятие общественной организации", "ShortName":"ПОО"},
{"Name":"Предприятие потребительской кооперации", "ShortName":"ППКООП"},
{"Name":"Представительство", "ShortName":"ПРЕД"},
{"Name":"Приход", "ShortName":"Приход"},
{"Name":"Производственное объединение", "ShortName":"ПО"},
{"Name":"Производственно – коммерческая компания", "ShortName":"ПКК"},
{"Name":"Производственно – коммерческая фирма", "ShortName":"ПКФ"},
{"Name":"Производственно – коммерческое предприятие", "ShortName":"ПКП"},
{"Name":"Производственный кооператив", "ShortName":"ПК"},
{"Name":"Простое товарищество", "ShortName":"ПрТ"},
{"Name":"Профсоюзный комитет", "ShortName":"ПРОФКОМ"},
{"Name":"Редакция средств массовой информации", "ShortName":"РедСМИ"},
{"Name":"Религиозная организация", "ShortName":"РО"},
{"Name":"Религиозное общество", "ShortName":"РОБ"},
{"Name":"Ремонтно – строительное управление", "ShortName":"РСУ"},
{"Name":"Ремонтно – эксплуатационное управление", "ShortName":"РЭУ"},
{"Name":"Садоводческое товарищество", "ShortName":"СТ"},
{"Name":"Сельскохозяйственный кооператив", "ShortName":"СХК"},
{"Name":"Сельскохозяйственный потребительский кооператив", "ShortName":"СХПК"},
{"Name":"Семейное предприятие", "ShortName":"СЕМ"},
{"Name":"Смешанное товарищество", "ShortName":"СМТ"},
{"Name":"Совместное предприятие", "ShortName":"СП"},
{"Name":"Совхоз", "ShortName":"СВХ"},
{"Name":"Союз", "ShortName":"Союз"},
{"Name":"Союз крестьянских (фермерских) хозяйств", "ShortName":"СоюзКФХ"},
{"Name":"Союз потребительских обществ", "ShortName":"СоюзПОБ"},
{"Name":"Специализированное конструкторское бюро", "ShortName":"СКБ"},
{"Name":"Строительно – монтажное управление", "ShortName":"СМУ"},
{"Name":"Структурное подразделение", "ShortName":"СТП"},
{"Name":"Территориальная организация профсоюза", "ShortName":"ТОПроф"},
{"Name":"Территориальное общественное самоуправление", "ShortName":"ТОС"},
{"Name":"Товарищество на вере", "ShortName":"ТВ"},
{"Name":"Товарищество собственников жилья", "ShortName":"ТСЖ"},
{"Name":"Торговая фирма", "ShortName":"ТФ"},
{"Name":"Торгово-промышленная палата", "ShortName":"ТПП"},
{"Name":"Торговый дом", "ShortName":"ТД"},
{"Name":"Транснациональная финансово – промышленная группа", "ShortName":"ТФПГ"},
{"Name":"Управление производственно – технической комплектации", "ShortName":"УПТК"},
{"Name":"Учреждение", "ShortName":"Уч"},
{"Name":"Учреждение потребительской кооперации", "ShortName":"УЧПТК"},
{"Name":"Учреждение общественной организации", "ShortName":"УОО"},
{"Name":"Федеральное государственное унитарное предприятие", "ShortName":"ФГУП"},
{"Name":"Федеральное казенное предприятие", "ShortName":"ФКП"},
{"Name":"Федеральное бюджетное учреждение", "ShortName":"ФБУ"},
{"Name":"Федеральное государственное учреждение", "ShortName":"ФГУ"},
{"Name":"Федеральное государственное бюджетное учреждение", "ShortName":"ФГБУ"},
{"Name":"Федеральное казенное учреждение", "ShortName":"ФКУ"},
{"Name":"Филиал", "ShortName":"ФЛ"},
{"Name":"Филиал фонда", "ShortName":"ФФ"},
{"Name":"Финансово – инвестиционная компания", "ShortName":"ФИК"},
{"Name":"Финансово – промышленная группа", "ShortName":"ФПГ"},
{"Name":"Финансовый отдел", "ShortName":"ФИНОТДЕЛ"},
{"Name":"Фирма", "ShortName":"Фирма"},
{"Name":"Фонд", "ShortName":"Фонд"},
{"Name":"Хозяйственное управление", "ShortName":"ХОЗУ"},
{"Name":"Церковь", "ShortName":"Церковь"},
{"Name":"Централизованная бухгалтерия", "ShortName":"ЦБУХ"},
{"Name":"Централизованная районная бухгалтерия", "ShortName":"ЦРБУХ"},
{"Name":"Центральная районная больница", "ShortName":"ЦРБ"},
{"Name":"Центр досуга населения", "ShortName":"ЦДН"},
{"Name":"Частное охранное предприятие", "ShortName":"ЧОП"},
{"Name":"Частное учреждение", "ShortName":"ЧУ"},
{"Name":"Чековый инвестиционный фонд", "ShortName":"ЧИФ"},
{"Name":"Школа", "ShortName":"Школа"},
{"Name":"Ясли – сад", "ShortName":"Я/С"}]
