[{"Name":"Юрист", "Type": 10},
{"Name":"Юрисконсульт", "Type": 10},
{"Name":"Электрик", "Type": 10},
{"Name":"Экономист-маркетолог", "Type": 10},
{"Name":"Экономист", "Type": 10},
{"Name":"Эколог", "Type": 10},
{"Name":"Электролизник расплавленных солей", "Type": 10},
{"Name":"Электромонтер электросвязи и проводного вещания,  устройств сигнализации", "Type": 10},
{"Name":"Электрослесарь строительный", "Type": 10},
{"Name":"Шеф-повар", "Type": 10},
{"Name":"Швея", "Type": 10},
{"Name":"Штукатур,  маляр", "Type": 10},
{"Name":"Хэд-хантер", "Type": 10},
{"Name":"Художественный редактор", "Type": 10},
{"Name":"Художник росписи по дереву", "Type": 10},
{"Name":"Финансовый менеджер", "Type": 10},
{"Name":"Финансовый директор", "Type": 10},
{"Name":"Фотограф", "Type": 10},
{"Name":"Фрезеровщик", "Type": 10},
{"Name":"Учитель", "Type": 10},
{"Name":"Трейдер", "Type": 10},
{"Name":"Товаровед", "Type": 10},
{"Name":"Технический редактор", "Type": 10},
{"Name":"Техник-электрик", "Type": 10},
{"Name":"Техник-технолог", "Type": 10},
{"Name":"Техник-строитель", "Type": 10},
{"Name":"Техник-сварщик", "Type": 10},
{"Name":"Техник-механик по ремонту и техническому обслуживанию автомобилей", "Type": 10},
{"Name":"Тестер", "Type": 10},
{"Name":"Телохранитель", "Type": 10},
{"Name":"Тракторист-машинист сельскохозяйственного производства", "Type": 20},
{"Name":"Технолог общественного питания", "Type": 10},
{"Name":"Токарь", "Type": 10},
{"Name":"Токарь-универсал", "Type": 10},
{"Name":"Ткач", "Type": 10},
{"Name":"Тестовод", "Type": 10},
{"Name":"Торговый представитель", "Type": 10},
{"Name":"Супервайзер", "Type": 10},
{"Name":"Стендист", "Type": 10},
{"Name":"Социолог", "Type": 10},
{"Name":"Сити-менеджер", "Type": 10},
{"Name":"Системный администратор", "Type": 10},
{"Name":"Сервейер", "Type": 10},
{"Name":"Секретарь-ресепшионист", "Type": 10},
{"Name":"Секретарь-машинистка", "Type": 10},
{"Name":"Секретарь-референт", "Type": 10},
{"Name":"Страховой агент", "Type": 10},
{"Name":"Станочник широкого профиля", "Type": 10},
{"Name":"Столяр строительный", "Type": 10},
{"Name":"Станочник в деревообработке", "Type": 10},
{"Name":"Социальный работник", "Type": 10},
{"Name":"Слесарь по ремонту сложной бытовой техники", "Type": 10},
{"Name":"Слесарь по ремонту подвижного состава", "Type": 10},
{"Name":"Слесарь-ремонтник", "Type": 10},
{"Name":"Специалист бэк-офиса", "Type": 10},
{"Name":"Риэлтер", "Type": 10},
{"Name":"Ремонтник горного оборудования", "Type": 10},
{"Name":"Рекрутер", "Type": 10},
{"Name":"Региональный менеджер", "Type": 10},
{"Name":"Психолог", "Type": 10},
{"Name":"Прораб", "Type": 10},
{"Name":"Производственный мастер", "Type": 10},
{"Name":"Продавец-консультант", "Type": 10},
{"Name":"Программист предприятия торгвли", "Type": 10},
{"Name":"Программист", "Type": 10},
{"Name":"Правовед", "Type": 10},
{"Name":"Помощник директора по социальным вопросам", "Type": 10},
{"Name":"Пиарщик", "Type": 10},
{"Name":"Переводчик", "Type": 10},
{"Name":"Парикмахер", "Type": 10},
{"Name":"Плотник", "Type": 10},
{"Name":"Подручный сталевара", "Type": 10},
{"Name":"Проходчик", "Type": 10},
{"Name":"Продавец (продавец промышленных,  продовольственных товаров)", "Type": 10},
{"Name":"Повар-кондитер", "Type": 10},
{"Name":"Повар", "Type": 10},
{"Name":"Пекарь", "Type": 10},
{"Name":"Портной", "Type": 10},
{"Name":"Печатник", "Type": 10},
{"Name":"Плавильщик ферросплавов", "Type": 10},
{"Name":"Помощник машиниста локомотива, тепловоза", "Type": 10},
{"Name":"Промоутер", "Type": 10},
{"Name":"Провизор", "Type": 10},
{"Name":"Оценщик", "Type": 10},
{"Name":"Охотник", "Type": 10},
{"Name":"Офис-менеджер", "Type": 10},
{"Name":"Отделочник", "Type": 10},
{"Name":"Ответственный за работу с кадрами предприятия торговли", "Type": 10},
{"Name":"Оператор ПК", "Type": 10},
{"Name":"Оператор пейджинговой связи", "Type": 10},
{"Name":"Оператор в производстве химических волокон", "Type": 10},
{"Name":"Обогатитель полезных ископаемых", "Type": 10},
{"Name":"Оператор крутильного оборудования", "Type": 10},
{"Name":"Оператор электронных вычислительных машин", "Type": 10},
{"Name":"Оператор поста управления", "Type": 10},
{"Name":"Облицовщик - плиточник", "Type": 10},
{"Name":"Официант", "Type": 10},
{"Name":"Оператор-кузнец", "Type": 10},
{"Name":"Нотариус", "Type": 10},
{"Name":"Начальник юридического отдела", "Type": 10},
{"Name":"Начальник цеха (участка)", "Type": 10},
{"Name":"Начальник хозяйственного отдела", "Type": 10},
{"Name":"Начальник финасового отдела", "Type": 10},
{"Name":"Начальник технического отдела", "Type": 10},
{"Name":"Начальник службы инкассации банка", "Type": 10},
{"Name":"Начальник производственного отдела", "Type": 10},
{"Name":"Начальник отдела социального развития", "Type": 10},
{"Name":"Начальник отдела сбыта", "Type": 10},
{"Name":"Начальник отдела прямых продаж", "Type": 10},
{"Name":"Начальник отдела подготовки кадров", "Type": 10},
{"Name":"Начальник отдела охраны труда", "Type": 10},
{"Name":"Начальник отдела охраны окружающей среды", "Type": 10},
{"Name":"Начальник отдела материально-технического обеспечения", "Type": 10},
{"Name":"Начальник отдела маркетинга", "Type": 10},
{"Name":"Начальник отдела комплектации оборудования", "Type": 10},
{"Name":"Начальник отдела капитального строительства", "Type": 10},
{"Name":"Начальник отдела кадров", "Type": 10},
{"Name":"Налоговый инспектор", "Type": 10},
{"Name":"Наладчик контрольно-измерительных приборов и автоматики", "Type": 10},
{"Name":"Начальник медицинского склада", "Type": 10},
{"Name":"Монтажник технологического оборудования", "Type": 10},
{"Name":"Монтажник стальных и железобетонных конструкций", "Type": 10},
{"Name":"Монтажник систем вентиляции", "Type": 10},
{"Name":"Монтажник связи", "Type": 10},
{"Name":"Монтажник санитарно-технических устройств и оборудования", "Type": 10},
{"Name":"Модистка головных уборов", "Type": 10},
{"Name":"Мерчендайзер", "Type": 10},
{"Name":"Менеджер торгового зала", "Type": 10},
{"Name":"Менеджер по туризму", "Type": 10},
{"Name":"Менеджер по транспорту", "Type": 10},
{"Name":"Менеджер по технической поддержке", "Type": 10},
{"Name":"Менеджер по связям с общественностью", "Type": 10},
{"Name":"Менеджер по розничным продажам", "Type": 10},
{"Name":"Менеджер по развитию территории", "Type": 10},
{"Name":"Менеджер по работе со складами", "Type": 10},
{"Name":"Менеджер по работе с таможней", "Type": 10},
{"Name":"Менеджер по работе с ключевыми клиентами", "Type": 10},
{"Name":"Менеджер по работе с клиентами", "Type": 10},
{"Name":"Менеджер по продаже канцтоваров", "Type": 10},
{"Name":"Менеджер по продажам рекламных площадей", "Type": 10},
{"Name":"Менеджер по продажам", "Type": 10},
{"Name":"Менеджер по персоналу", "Type": 10},
{"Name":"Менеджер по оценкам рисков", "Type": 10},
{"Name":"Менеджер по логистике", "Type": 10},
{"Name":"Менеджер по закупкам", "Type": 10},
{"Name":"Менеджер по вопросам кредитования и дебиторской задолженности", "Type": 10},
{"Name":"Менеджер по RD", "Type": 10},
{"Name":"Менеджер отдела информационных технологий", "Type": 10},
{"Name":"Менеджер (в области рекламного дела)", "Type": 10},
{"Name":"Менеджер", "Type": 10},
{"Name":"Медицинский представитель", "Type": 10},
{"Name":"Медиапланер", "Type": 10},
{"Name":"Медиа-байер", "Type": 10},
{"Name":"Машинист электровоза на горных выработках", "Type": 20},
{"Name":"Машинист тесторазделочных машин", "Type": 20},
{"Name":"Машинист тепловоза", "Type": 20},
{"Name":"Машинист мостового и башенного крана", "Type": 10},
{"Name":"Машинист крана металлургического производства", "Type": 10},
{"Name":"Машинист компрессорных установок", "Type": 10},
{"Name":"Машинист дорожных и строительных машин", "Type": 20},
{"Name":"Машинист горно-вымоечных машин", "Type": 20},
{"Name":"Машинист бульдозера", "Type": 20},
{"Name":"Машинист башенного крана", "Type": 10},
{"Name":"Машинист автопогрузчика", "Type": 20},
{"Name":"Машинист автомобильного крана", "Type": 20},
{"Name":"Машинист (кочегар) котельной", "Type": 10},
{"Name":"Математик", "Type": 10},
{"Name":"Мастер участка", "Type": 10},
{"Name":"Мастер столярно-плотничных и паркетных работ", "Type": 10},
{"Name":"Мастер сельскохозяйственного производства", "Type": 10},
{"Name":"Мастер по ремонту и техническому обслуживанию машинотракторного парка", "Type": 10},
{"Name":"Мастер отделочных строительных работ", "Type": 10},
{"Name":"Мастер общестроительных работ", "Type": 10},
{"Name":"Массажист", "Type": 10},
{"Name":"Маркшейдер", "Type": 10},
{"Name":"Маркетолог", "Type": 10},
{"Name":"Маникюрша", "Type": 10},
{"Name":"Манекенщица", "Type": 10},
{"Name":"Маляр", "Type": 10},
{"Name":"Маклер", "Type": 10},
{"Name":"Лоббист", "Type": 10},
{"Name":"Лингвист", "Type": 10},
{"Name":"Лейбл-менеджер", "Type": 10},
{"Name":"Литейщик цветных металлов", "Type": 10},
{"Name":"Литейщик пластмасс", "Type": 10},
{"Name":"Лаборант химического анализа", "Type": 10},
{"Name":"Лаборант-эколог", "Type": 10},
{"Name":"Лаборант-аналитик", "Type": 10},
{"Name":"Логистик", "Type": 10},
{"Name":"Кризис-менеджер", "Type": 10},
{"Name":"Креативный директор", "Type": 10},
{"Name":"Коучер", "Type": 10},
{"Name":"Косметолог", "Type": 10},
{"Name":"Корректор", "Type": 10},
{"Name":"Консультант-рекрутер кадрового агентства", "Type": 10},
{"Name":"Консультант телефона доверия", "Type": 10},
{"Name":"Комплектовальщик предприятия торговли", "Type": 10},
{"Name":"Клинер", "Type": 10},
{"Name":"Кассир предприятия торговли", "Type": 10},
{"Name":"Карщик - машинист автопогрузчика", "Type": 10},
{"Name":"Калькулятор", "Type": 10},
{"Name":"Кассир", "Type": 10},
{"Name":"Контролер-кассир", "Type": 10},
{"Name":"Контролер сберегательного банка", "Type": 10},
{"Name":"Кондитер", "Type": 10},
{"Name":"Коммерсант", "Type": 10},
{"Name":"Каменщик (каменщик,  монтажник)", "Type": 10},
{"Name":"Каменщик,  печник", "Type": 10},
{"Name":"Копирайтер", "Type": 10},
{"Name":"Косметолог", "Type": 10},
{"Name":"Инкассатор", "Type": 10},
{"Name":"Инженер-электрик", "Type": 10},
{"Name":"Инженер-строитель", "Type": 10},
{"Name":"Инженер-сметчик", "Type": 10},
{"Name":"Инженер-системотехник по асу", "Type": 10},
{"Name":"Инженер-проектировщик", "Type": 10},
{"Name":"Инженер-программист", "Type": 10},
{"Name":"Инженер-механик", "Type": 10},
{"Name":"Инженер-конструктор", "Type": 10},
{"Name":"Инженер-геодезист", "Type": 10},
{"Name":"Инженер по строительству", "Type": 10},
{"Name":"Инженер по подготовке кадров", "Type": 10},
{"Name":"Инженер по организации управления производством", "Type": 10},
{"Name":"Инженер по организации труда", "Type": 10},
{"Name":"Инженер по защите информации", "Type": 10},
{"Name":"Инженер по стандартизации", "Type": 10},
{"Name":"Инженер по охране труда и технике безопасности", "Type": 10},
{"Name":"Изготовитель художественных изделий из дерева", "Type": 10},
{"Name":"Изготовитель арматурных сеток и каркасов", "Type": 10},
{"Name":"Изготовитель хлебобулочных изделий", "Type": 10},
{"Name":"Изготовитель изделий из меха", "Type": 10},
{"Name":"Исполнитель художественно-оформительских работ", "Type": 10},
{"Name":"Имиджмейкер", "Type": 10},
{"Name":"Зубной техник", "Type": 10},
{"Name":"Зооинженер", "Type": 10},
{"Name":"Землеустроитель", "Type": 10},
{"Name":"Заместитель начальника отдела поступления и расходования средств", "Type": 10},
{"Name":"Заместитель директора предприятия по производству", "Type": 10},
{"Name":"Заместитель директора по экономическим вопросам", "Type": 10},
{"Name":"Заместитель директора по управлению персоналом", "Type": 10},
{"Name":"Заместитель директора по коммерческим вопросам", "Type": 10},
{"Name":"Заместитель директора по капитальному строительству", "Type": 10},
{"Name":"Заместитель генерального директора предприятия торговли", "Type": 10},
{"Name":"Заместитель генерального директора по технической части", "Type": 10},
{"Name":"Заведующий экспедицией", "Type": 10},
{"Name":"Заведующий хозяйством", "Type": 10},
{"Name":"Заведующий складом", "Type": 10},
{"Name":"Закройщик", "Type": 10},
{"Name":"Журналист", "Type": 10},
{"Name":"Дорожный инспектор", "Type": 10},
{"Name":"Документовод", "Type": 10},
{"Name":"Дистрибьютор", "Type": 10},
{"Name":"Диспетчер", "Type": 10},
{"Name":"Диктор", "Type": 10},
{"Name":"Делопроизводитель", "Type": 10},
{"Name":"Директор по RD", "Type": 10},
{"Name":"Дилер", "Type": 10},
{"Name":"Дизайнер", "Type": 10},
{"Name":"Девелопер", "Type": 10},
{"Name":"Главный энергетик", "Type": 10},
{"Name":"Главный технолог", "Type": 10},
{"Name":"Главный специалист по защите информации", "Type": 10},
{"Name":"Главный программист", "Type": 10},
{"Name":"Главный механик", "Type": 10},
{"Name":"Главный конструктор", "Type": 10},
{"Name":"Главный инженер по строительству", "Type": 10},
{"Name":"Главный инженер", "Type": 10},
{"Name":"Генеральный дирекор", "Type": 10},
{"Name":"Горнорабочий подземный", "Type": 10},
{"Name":"Главный управляющий по налогообложению", "Type": 10},
{"Name":"Главный бухгалтер", "Type": 10},
{"Name":"Выпускающий редактор", "Type": 10},
{"Name":"Врач инфекционист", "Type": 10},
{"Name":"Врач-диетолог", "Type": 10},
{"Name":"Врач дерматовенеролог", "Type": 10},
{"Name":"Воспитатель детских дошкольных учреждений", "Type": 10},
{"Name":"Водитель такси", "Type": 20},
{"Name":"Водитель автомобиля", "Type": 20},
{"Name":"Вирусолог", "Type": 10},
{"Name":"Визажист", "Type": 10},
{"Name":"Ветеринарный врач", "Type": 10},
{"Name":"Веб-продюсер", "Type": 10},
{"Name":"Веб-программист", "Type": 10},
{"Name":"Веб-дизайнер", "Type": 10},
{"Name":"Водитель автомобиля (категории `в`,  `с`)", "Type": 20},
{"Name":"Вальцовщик стана горячей прокатки", "Type": 10},
{"Name":"Вязальщица трикотажных изделий", "Type": 10},
{"Name":"Вышивальщица", "Type": 10},
{"Name":"Ветеринарный фельдшер", "Type": 10},
{"Name":"Верстальщик", "Type": 10},
{"Name":"Бухгалтер-ревизор", "Type": 10},
{"Name":"Бухгалтер-претензионист", "Type": 10},
{"Name":"Бухгалтер-калькулятор", "Type": 10},
{"Name":"Бухгалтер товарной группы", "Type": 10},
{"Name":"Бригадир поезда", "Type": 10},
{"Name":"Бригадир железнодорожного пути", "Type": 10},
{"Name":"Бортпроводник", "Type": 10},
{"Name":"Бортинженер", "Type": 10},
{"Name":"Биофизик", "Type": 10},
{"Name":"Бионик", "Type": 10},
{"Name":"Билетный кассир", "Type": 10},
{"Name":"Библиотекарь", "Type": 10},
{"Name":"Библиограф", "Type": 10},
{"Name":"Бармен", "Type": 10},
{"Name":"Бухгалтер", "Type": 10},
{"Name":"Брокер", "Type": 10},
{"Name":"Бренд-менеджер", "Type": 10},
{"Name":"Бизнес-консультант", "Type": 10},
{"Name":"Аудитор", "Type": 10},
{"Name":"Ассистент менеджера по продажам", "Type": 10},
{"Name":"Архитектор", "Type": 10},
{"Name":"Аппаратчик пастеризации и охлаждения молока", "Type": 10},
{"Name":"Аппаратчик-оператор", "Type": 10},
{"Name":"Андеррайтер", "Type": 10},
{"Name":"Актер театра", "Type": 10},
{"Name":"Администратор предприятия торговли", "Type": 10},
{"Name":"Администратор", "Type": 10},
{"Name":"Адвокат", "Type": 10},
{"Name":"Агент страховой", "Type": 10},
{"Name":"Агент коммерческий", "Type": 10},
{"Name":"Автомеханик", "Type": 10}]
